{
  "IcoMoonType": "selection",
  "icons": [
    {
      "icon": {
        "paths": [
          "M850.008 618.051c-11.264 0-20.399 9.133-20.399 20.399v267.955h-788.81v-788.81h809.209c11.264 0 20.399-9.133 20.399-20.399s-9.135-20.399-20.399-20.399h-829.608c-11.264 0-20.399 9.133-20.399 20.399v829.608c0 11.266 9.135 20.399 20.399 20.399h829.608c11.264 0 20.399-9.133 20.399-20.399v-288.354c0-11.266-9.135-20.399-20.399-20.399z",
          "M850.008 469.145c-11.264 0-20.399 9.133-20.399 20.399v54.364c0 11.266 9.135 20.399 20.399 20.399s20.399-9.133 20.399-20.399v-54.364c0-11.266-9.135-20.399-20.399-20.399z",
          "M1000.755 137.892c-30.992-30.986-81.419-30.986-112.411 0l-461.414 461.414-144.697-144.697c-30.988-30.988-81.419-30.99-112.411 0-30.99 30.992-30.99 81.421 0 112.411l200.903 200.903c15.012 15.012 34.974 23.282 56.206 23.282s41.192-8.268 56.208-23.282l517.62-517.62c30.99-30.988 30.99-81.417-0.002-112.411zM971.907 221.459l-517.618 517.618c-7.309 7.307-17.025 11.332-27.359 11.332s-20.050-4.025-27.357-11.332l-200.901-200.903c-15.085-15.085-15.085-39.631-0.002-54.717 7.544-7.544 17.451-11.313 27.359-11.313 9.906 0 19.816 3.772 27.357 11.311l159.119 159.121c3.827 3.825 9.014 5.975 14.424 5.975s10.597-2.15 14.424-5.975l475.836-475.832c15.087-15.083 39.631-15.085 54.717 0 15.085 15.083 15.085 39.629 0 54.715z"
        ],
        "attrs": [
          {},
          {},
          {}
        ],
        "isMulticolor": false,
        "isMulticolor2": false,
        "grid": 0,
        "tags": [
          "check"
        ]
      },
      "attrs": [
        {},
        {},
        {}
      ],
      "properties": {
        "order": 2,
        "id": 3,
        "name": "check",
        "prevSize": 32,
        "code": 59648
      },
      "setIdx": 0,
      "setId": 2,
      "iconIdx": 0
    },
    {
      "icon": {
        "paths": [
          "M512 0c-56.555 0-102.4 45.845-102.4 102.4s45.845 102.4 102.4 102.4c56.531-0.055 102.345-45.869 102.4-102.4 0-56.555-45.845-102.4-102.4-102.4zM512 170.667c-37.702 0-68.267-30.564-68.267-68.267s30.564-68.267 68.267-68.267c37.702 0 68.267 30.564 68.267 68.267s-30.564 68.267-68.267 68.267z",
          "M580.267 221.867h-4.028l-3.601 1.792c-38.189 19.014-83.087 19.014-121.276 0l-3.601-1.792h-4.028c-47.104 0.055-85.278 38.229-85.333 85.333v102.4c0 28.277 22.923 51.2 51.2 51.2h204.8c28.277 0 51.2-22.923 51.2-51.2v-102.4c-0.055-47.104-38.229-85.278-85.333-85.333zM631.467 409.6c0 9.425-7.642 17.067-17.067 17.067h-204.8c-9.425 0-17.067-7.642-17.067-17.067v-102.4c0.004-26.863 20.768-49.156 47.565-51.063 45.6 21.163 98.206 21.163 143.804 0 26.795 1.907 47.561 24.201 47.565 51.063v102.4z",
          "M870.4 563.2c-56.555 0-102.4 45.845-102.4 102.4s45.845 102.4 102.4 102.4c56.555 0 102.4-45.845 102.4-102.4-0.055-56.531-45.869-102.345-102.4-102.4zM870.4 733.867c-37.702 0-68.267-30.564-68.267-68.267s30.564-68.267 68.267-68.267c37.702 0 68.267 30.564 68.267 68.267s-30.564 68.267-68.267 68.267z",
          "M938.667 785.067h-4.028l-3.601 1.707c-38.189 19.012-83.087 19.012-121.276 0l-3.601-1.707h-4.028c-47.104 0.055-85.278 38.229-85.333 85.333v102.4c0 28.277 22.923 51.2 51.2 51.2h204.8c28.277 0 51.2-22.923 51.2-51.2v-102.4c-0.055-47.104-38.229-85.278-85.333-85.333zM989.867 972.8c0 9.425-7.642 17.067-17.067 17.067h-204.8c-9.425 0-17.067-7.642-17.067-17.067v-102.4c0.004-26.863 20.768-49.156 47.565-51.063 45.6 21.163 98.204 21.163 143.804 0 26.797 1.907 47.561 24.201 47.565 51.063v102.4z",
          "M153.6 563.2c-56.555 0-102.4 45.845-102.4 102.4s45.845 102.4 102.4 102.4 102.4-45.845 102.4-102.4c-0.055-56.531-45.869-102.345-102.4-102.4zM153.6 733.867c-37.702 0-68.267-30.564-68.267-68.267s30.564-68.267 68.267-68.267 68.267 30.564 68.267 68.267c0 37.702-30.564 68.267-68.267 68.267z",
          "M221.867 785.067h-4.028l-3.601 1.707c-38.189 19.012-83.087 19.012-121.276 0l-3.601-1.707h-4.028c-47.104 0.055-85.278 38.229-85.333 85.333v102.4c0 28.277 22.923 51.2 51.2 51.2h204.8c28.277 0 51.2-22.923 51.2-51.2v-102.4c-0.055-47.104-38.229-85.278-85.333-85.333zM273.067 972.8c0 9.425-7.642 17.067-17.067 17.067h-204.8c-9.425 0-17.067-7.642-17.067-17.067v-102.4c0.004-26.863 20.768-49.156 47.565-51.063 45.6 21.163 98.204 21.163 143.804 0 26.797 1.907 47.561 24.201 47.565 51.063v102.4z",
          "M681.327 866.722c-0.009-0.019-0.017-0.038-0.026-0.060-3.695-8.672-13.719-12.706-22.389-9.011 0 0 0 0 0 0-77.067 32.299-162.656 38.191-243.422 16.759l15.974-4.693c9.050-2.65 14.238-12.13 11.588-21.18s-12.13-14.238-21.18-11.588l-68.267 20.019c-0.256 0-0.444 0.29-0.683 0.375-1.581 0.589-3.066 1.412-4.403 2.441-0.593 0.32-1.163 0.678-1.707 1.075-1.801 1.606-3.228 3.586-4.181 5.803-0.926 2.231-1.367 4.634-1.297 7.049 0.416 2.31 0.986 4.591 1.707 6.827 0.102 0.239 0 0.512 0.188 0.751l34.133 65.314c4.365 8.361 14.679 11.601 23.040 7.236s11.601-14.679 7.236-23.040l-13.892-26.556c91.763 27.584 190.283 22.223 278.511-15.155 8.678-3.671 12.74-13.685 9.069-22.366z",
          "M967.799 448.734c-6.665-6.662-17.468-6.662-24.132 0l-24.149 24.149c-14.131-149.483-109.037-279.202-247.228-337.92-8.672-3.695-18.697 0.339-22.391 9.011s0.339 18.697 9.011 22.391c123.968 52.687 210.142 167.827 225.741 301.619l-19.251-19.251c-6.78-6.549-17.583-6.362-24.132 0.418-6.387 6.613-6.387 17.099 0 23.714l51.2 51.2c6.656 6.673 17.463 6.688 24.137 0.030 0.011-0.011 0.021-0.021 0.030-0.030l51.2-51.2c6.654-6.673 6.639-17.476-0.034-24.132z",
          "M374.972 147.78c-0.055-0.996-0.203-1.984-0.444-2.953 0-0.154-0.188-0.256-0.256-0.427s0-0.29 0-0.427c-0.465-0.83-1.003-1.619-1.604-2.355-0.553-1.001-1.205-1.943-1.946-2.816-1.009-0.894-2.127-1.655-3.328-2.27-0.599-0.51-1.239-0.973-1.911-1.382l-68.267-31.181c-8.719-3.58-18.69 0.587-22.27 9.306-3.386 8.245 0.145 17.709 8.105 21.722l35.345 16.162c-133.062 71.213-216.092 209.92-215.996 360.841 0 9.425 7.642 17.067 17.067 17.067s17.067-7.642 17.067-17.067c-0.085-132.892 70.189-255.898 184.713-323.311l-12.339 25.788c-4.068 8.484-0.503 18.66 7.97 22.75 2.302 1.124 4.828 1.709 7.39 1.707 6.554-0.009 12.523-3.77 15.36-9.677l34.133-71.219c0-0.171 0-0.358 0.137-0.529 0.444-1.167 0.753-2.381 0.922-3.618 0.292-0.919 0.51-1.86 0.649-2.816-0.058-1.111-0.222-2.214-0.495-3.294z"
        ],
        "attrs": [
          {},
          {},
          {},
          {},
          {},
          {},
          {},
          {},
          {}
        ],
        "isMulticolor": false,
        "isMulticolor2": false,
        "grid": 0,
        "tags": [
          "collaboration"
        ]
      },
      "attrs": [
        {},
        {},
        {},
        {},
        {},
        {},
        {},
        {},
        {}
      ],
      "properties": {
        "order": 3,
        "id": 2,
        "name": "collaboration",
        "prevSize": 32,
        "code": 59649
      },
      "setIdx": 0,
      "setId": 2,
      "iconIdx": 1
    },
    {
      "icon": {
        "paths": [
          "M802.133 68.267h-204.8l30.72-40.96c5.666-7.526 4.13-18.227-3.413-23.876-7.526-5.649-18.227-4.13-23.876 3.413l-46.097 61.423h-83.319l-29.423-58.829c-4.215-8.431-14.473-11.81-22.903-7.629-8.431 4.215-11.844 14.473-7.629 22.903l21.794 43.554h-211.319c-28.228 0-51.2 22.972-51.2 51.2v853.333c0 28.228 22.972 51.2 51.2 51.2h580.267c28.228 0 51.2-22.972 51.2-51.2v-853.333c0-28.228-22.972-51.2-51.2-51.2zM221.867 102.4h228.386l17.067 34.133c-14.336 12.527-23.586 30.703-23.586 51.2 0 37.649 30.618 68.267 68.267 68.267s68.267-30.618 68.267-68.267-30.618-68.267-68.267-68.267c-4.898 0-9.66 0.563-14.268 1.553l-9.318-18.62h313.719c9.421 0 17.067 7.646 17.067 17.067v563.2h-139.059c-5.205-20.19-18.688-37.444-37.717-46.967l-62.157-31.744v-6.605c27.785-15.172 47.326-40.158 58.231-74.479 16.538-8.772 27.102-25.856 27.102-45.005v-17.067c0-15.804-7.356-30.464-19.644-40.090-10.65-64.512-55.671-97.212-133.956-97.212-3.703 0-7.322 0.137-10.854 0.41-14.729 1.143-36.335-0.051-55.023-12.629-6.98-4.71-12.254-9.284-15.616-13.534-5.734-7.339-15.36-9.899-23.927-6.366-8.567 3.516-13.602 12.083-12.527 21.282 0.717 6.383 1.792 13.807 3.413 21.948 3.294 16.64 3.294 16.64-1.331 26.59-1.741 3.772-3.891 8.363-6.417 14.558-5.649 13.841-9.66 28.996-11.964 45.175-12.117 9.626-19.354 24.218-19.354 39.868v17.067c0 19.149 10.564 36.233 27.102 45.005 10.906 34.338 30.447 59.324 58.231 74.479v6.417l-64.324 31.71c-18.381 10.018-31.198 27.273-35.959 47.189h-138.65v-563.2c0-9.421 7.646-17.067 17.067-17.067zM483.533 168.977l13.193 26.385c3.004 5.99 9.028 9.438 15.292 9.438 2.56 0 5.171-0.58 7.612-1.792 8.431-4.215 11.844-14.473 7.629-22.903l-13.141-26.283c17.818 1.109 32.017 15.821 32.017 33.911 0 18.825-15.309 34.133-34.133 34.133s-34.133-15.309-34.133-34.133c0-6.929 2.099-13.363 5.666-18.756zM460.971 633.327c10.274-5.018 16.896-15.65 16.896-27.102v-30.771l-10.308-4.437c-25.89-11.162-42.718-32.444-51.456-65.092l-2.441-9.097-8.977-2.799c-7.151-2.219-12.151-8.858-12.151-16.162v-17.067c0-6.178 3.533-11.913 9.233-14.95l8.004-4.267 0.939-9.028c1.69-16.009 5.257-30.771 10.615-43.861 2.27-5.547 4.198-9.694 5.769-13.090 5.786-12.425 7.885-18.842 6.434-32 20.070 11.469 44.186 16.316 70.349 14.353 2.645-0.222 5.359-0.324 8.141-0.324 63.898 0 95.095 23.142 101.188 75.059l1.058 8.909 7.936 4.198c5.7 3.038 9.267 8.789 9.267 15.002v17.067c0 7.305-5.001 13.943-12.151 16.162l-8.977 2.799-2.441 9.097c-8.738 32.649-25.566 53.931-51.456 65.092l-10.308 4.454v30.908c0 11.418 6.315 21.709 16.452 26.88l64.427 32.922c7.356 3.686 13.175 9.506 16.896 16.503h-264.602c3.396-7.151 8.909-13.141 15.821-16.879l65.843-32.478zM802.133 989.867h-580.267c-9.421 0-17.067-7.646-17.067-17.067v-256h614.4v256c0 9.421-7.646 17.067-17.067 17.067z",
          "M665.6 836.267h-307.2c-9.438 0-17.067 7.629-17.067 17.067s7.629 17.067 17.067 17.067h307.2c9.438 0 17.067-7.629 17.067-17.067s-7.629-17.067-17.067-17.067z",
          "M426.667 802.133h170.667c9.438 0 17.067-7.629 17.067-17.067s-7.629-17.067-17.067-17.067h-170.667c-9.438 0-17.067 7.629-17.067 17.067s7.629 17.067 17.067 17.067z",
          "M375.467 904.533h-17.067c-9.438 0-17.067 7.629-17.067 17.067s7.629 17.067 17.067 17.067h17.067c9.438 0 17.067-7.629 17.067-17.067s-7.629-17.067-17.067-17.067z",
          "M477.867 904.533h-34.133c-9.438 0-17.067 7.629-17.067 17.067s7.629 17.067 17.067 17.067h34.133c9.438 0 17.067-7.629 17.067-17.067s-7.629-17.067-17.067-17.067z",
          "M563.2 904.533h-17.067c-9.438 0-17.067 7.629-17.067 17.067s7.629 17.067 17.067 17.067h17.067c9.438 0 17.067-7.629 17.067-17.067s-7.629-17.067-17.067-17.067z",
          "M665.6 904.533h-34.133c-9.438 0-17.067 7.629-17.067 17.067s7.629 17.067 17.067 17.067h34.133c9.438 0 17.067-7.629 17.067-17.067s-7.629-17.067-17.067-17.067z"
        ],
        "attrs": [
          {},
          {},
          {},
          {},
          {},
          {},
          {}
        ],
        "isMulticolor": false,
        "isMulticolor2": false,
        "grid": 0,
        "tags": [
          "id-card"
        ]
      },
      "attrs": [
        {},
        {},
        {},
        {},
        {},
        {},
        {}
      ],
      "properties": {
        "order": 4,
        "id": 1,
        "name": "id-card",
        "prevSize": 32,
        "code": 59650
      },
      "setIdx": 0,
      "setId": 2,
      "iconIdx": 2
    },
    {
      "icon": {
        "paths": [
          "M981.598 230.684c0.064-1.388 0.098-2.778 0.098-4.164 0-47.944-37.502-87.296-84.724-90.298-31.35-68.956-100.96-114.352-177.524-114.352-86.602 0-162.782 57.84-186.954 139.654-60.668 5.056-108.494 56.024-108.494 117.944 0 11.044 8.956 20 20 20s20-8.956 20-20c0-43.208 35.18-78.358 78.42-78.358 1.346 0 2.844 0.048 4.574 0.148 9.93 0.626 18.738-6.208 20.74-15.932 14.74-71.538 78.544-123.458 151.712-123.458 64.694 0 123.144 40.782 145.448 101.476 3.162 8.606 11.772 13.932 20.884 12.99 1.866-0.2 3.678-0.298 5.388-0.298 27.862 0 50.528 22.646 50.528 50.482 0 3.698-0.42 7.438-1.246 11.118-2.144 9.546 2.932 19.242 11.998 22.92 19.168 7.772 31.552 26.136 31.552 46.788 0 27.836-22.666 50.482-50.528 50.482h-209.47c-11.044 0-20 8.956-20 20s8.956 20 20 20h209.472c49.916 0 90.528-40.59 90.528-90.482 0-31.66-16.226-60.318-42.402-76.66z",
          "M838.52 225.638c-3.72-3.718-8.86-5.86-14.14-5.86-5.26 0-10.42 2.14-14.138 5.86-3.72 3.72-5.862 8.88-5.862 14.14 0 5.28 2.14 10.42 5.862 14.14 3.718 3.718 8.878 5.86 14.138 5.86s10.418-2.142 14.14-5.86c3.74-3.72 5.86-8.862 5.86-14.14 0-5.26-2.12-10.418-5.86-14.14z",
          "M738.118 225.64c-3.74-3.718-8.878-5.86-14.138-5.86-5.282 0-10.42 2.14-14.16 5.86-3.72 3.72-5.84 8.88-5.84 14.14 0 5.28 2.12 10.42 5.84 14.14 3.74 3.718 8.898 5.86 14.16 5.86 5.26 0 10.398-2.14 14.138-5.86 3.72-3.72 5.84-8.862 5.84-14.14-0-5.26-2.12-10.42-5.84-14.14z",
          "M637.7 225.638c-3.718-3.718-8.878-5.86-14.138-5.86-5.262 0-10.422 2.14-14.16 5.86-3.72 3.72-5.84 8.88-5.84 14.14 0 5.28 2.12 10.42 5.84 14.14 3.738 3.718 8.898 5.86 14.16 5.86 5.258 0 10.418-2.142 14.138-5.86 3.72-3.72 5.862-8.88 5.862-14.14s-2.14-10.418-5.862-14.14z",
          "M677.142 674.588l-70.098-23.228v-6.782c39.998-29.338 66.032-76.646 66.032-129.938v-177.882c0-11.044-8.956-20-20-20h-186.242c-63.916 0-115.916 51.998-115.916 115.914v81.968c0 53.292 26.032 100.6 66.030 129.936v6.782l-70.098 23.228c-79.636 26.388-133.142 100.488-133.142 184.384v123.158c0 11.044 8.956 20 20 20h556.58c11.044 0 20-8.956 20-20v-123.158c-0-83.894-53.506-157.994-133.146-184.382zM390.92 432.67c-0.002-41.858 34.054-75.912 75.914-75.912h166.242v100.934c-14.246 5.96-29.662 9.126-45.214 9.126-36.504 0-70.272-16.616-92.64-45.586-3.788-4.904-9.632-7.778-15.83-7.778-6.196 0-12.042 2.874-15.83 7.776-18.216 23.592-43.99 38.984-72.642 43.89v-32.45zM390.918 514.64v-9.118c33.396-4.218 64.218-18.91 88.472-42.2 29.030 27.878 67.458 43.496 108.47 43.496 15.344 0 30.602-2.282 45.214-6.664v14.486c0 66.764-54.316 121.078-121.080 121.078s-121.076-54.314-121.076-121.078zM565.6 666.514v28.728c0 29.554-24.044 53.6-53.6 53.6s-53.6-24.044-53.6-53.6v-28.726c16.778 5.938 34.81 9.204 53.596 9.204 18.79 0 36.824-3.266 53.604-9.206zM716 962.13v-109.788c0-11.044-8.956-20-20-20s-20 8.956-20 20v109.788h-328v-109.788c0-11.044-8.956-20-20-20s-20 8.956-20 20v109.788h-54.292v-103.158c0-66.622 42.488-125.46 105.724-146.416l58.968-19.542v2.224c0 51.612 41.988 93.6 93.6 93.6s93.6-41.988 93.6-93.6v-2.222l58.96 19.538c63.238 20.956 105.726 79.794 105.726 146.416v103.16h-54.286z",
          "M428.066 148.010c-9.352-3.706-18.956-6.922-28.696-9.614v-32.182c0-11.042-8.95-19.996-19.992-20l-110.522-0.042c-0.004 0-0.006 0-0.008 0-5.302 0-10.388 2.106-14.138 5.856-3.754 3.75-5.862 8.84-5.862 14.144v32.212c-22.264 6.14-43.566 14.958-63.632 26.346l-22.84-22.842c-7.81-7.806-20.466-7.806-28.278-0.008l-78.194 78.108c-3.754 3.75-5.864 8.838-5.866 14.144s2.106 10.396 5.858 14.148l22.884 22.884c-11.386 20.066-20.206 41.368-26.346 63.634h-32.392c-11.042 0-19.996 8.95-20 19.992l-0.042 110.52c-0.002 5.306 2.104 10.394 5.856 14.146 3.75 3.754 8.84 5.862 14.144 5.862h32.436c6.14 22.264 14.96 43.57 26.346 63.636l-22.974 22.974c-7.81 7.81-7.81 20.474 0 28.286l78.15 78.15c3.75 3.752 8.836 5.858 14.142 5.858 5.304 0 10.392-2.108 14.142-5.858l22.974-22.976c24.766 14.054 51.416 24.198 79.434 30.218 1.416 0.302 2.828 0.45 4.22 0.45 9.224 0 17.518-6.42 19.534-15.802 2.322-10.798-4.552-21.436-15.352-23.756-28.59-6.142-55.518-17.292-80.036-33.136-7.916-5.118-18.334-4.012-24.998 2.654l-19.92 19.922-49.866-49.866 19.92-19.92c6.666-6.666 7.772-17.080 2.654-24.998-15.844-24.52-26.994-51.448-33.134-80.038-1.98-9.216-10.128-15.798-19.554-15.798h-28.11l0.026-70.52h28.086c9.426 0 17.572-6.582 19.552-15.796 6.146-28.594 17.294-55.522 33.138-80.038 5.118-7.916 4.012-18.332-2.654-24.998l-19.822-19.822 49.892-49.838 19.794 19.796c6.67 6.666 17.082 7.772 24.998 2.654 24.518-15.844 51.444-26.992 80.034-33.136 9.216-1.978 15.798-10.126 15.798-19.552v-27.886l70.522 0.026v27.864c0 9.426 6.582 17.572 15.796 19.552 12.994 2.794 25.834 6.688 38.16 11.574 10.266 4.064 21.894-0.956 25.962-11.224 4.068-10.27-0.956-21.894-11.224-25.964z",
          "M324 518.548c-59.76 0-108.376-48.618-108.376-108.376 0-39.206 21.274-75.47 55.524-94.644 9.638-5.396 13.078-17.582 7.682-27.22s-17.59-13.076-27.22-7.682c-46.872 26.24-75.986 75.878-75.986 129.546 0 81.814 66.562 148.376 148.376 148.376 11.044 0 20-8.956 20-20s-8.956-20-20-20z",
          "M323.812 261.794c-11.046 0-20 8.956-20 20s8.956 20 20 20h0.188c11.044 0 19.906-8.956 19.906-20s-9.048-20-20.094-20z",
          "M916 538.544c-11.044 0-20 8.956-20 20v295.626h-40.666c-11.044 0-20 8.956-20 20s8.956 20 20 20h60.666c11.044 0 20-8.956 20-20v-315.626c0-11.044-8.956-20-20-20z",
          "M930.138 464.918c-3.718-3.72-8.878-5.84-14.138-5.84s-10.42 2.12-14.14 5.84c-3.72 3.718-5.86 8.878-5.86 14.16 0 5.26 2.138 10.398 5.86 14.138 3.72 3.72 8.88 5.862 14.14 5.862s10.42-2.14 14.138-5.862c3.72-3.74 5.862-8.878 5.862-14.138 0-5.282-2.14-10.442-5.862-14.16z",
          "M166 854.172h-38.334v-136.852c0-11.044-8.956-20-20-20s-20 8.956-20 20v156.852c0 11.044 8.956 20 20 20h58.334c11.044 0 20-8.956 20-20s-8.956-20-20-20z"
        ],
        "attrs": [
          {},
          {},
          {},
          {},
          {},
          {},
          {},
          {},
          {},
          {},
          {}
        ],
        "isMulticolor": false,
        "isMulticolor2": false,
        "grid": 0,
        "tags": [
          "user"
        ]
      },
      "attrs": [
        {},
        {},
        {},
        {},
        {},
        {},
        {},
        {},
        {},
        {},
        {}
      ],
      "properties": {
        "order": 5,
        "id": 0,
        "name": "user",
        "prevSize": 32,
        "code": 59651
      },
      "setIdx": 0,
      "setId": 2,
      "iconIdx": 3
    }
  ],
  "height": 1024,
  "metadata": {
    "name": "icomoon"
  },
  "preferences": {
    "showGlyphs": true,
    "showQuickUse": true,
    "showQuickUse2": true,
    "showSVGs": true,
    "fontPref": {
      "prefix": "icon-",
      "metadata": {
        "fontFamily": "icomoon"
      },
      "metrics": {
        "emSize": 1024,
        "baseline": 6.25,
        "whitespace": 50
      },
      "embed": false
    },
    "imagePref": {
      "prefix": "icon-",
      "png": true,
      "useClassSelector": true,
      "color": 0,
      "bgColor": 16777215,
      "classSelector": ".icon"
    },
    "historySize": 50,
    "showCodes": true,
    "gridSize": 16
  }
}